…
*10. Which states have the most Denny’s locations per thousand square
miles? What about La Quinta?*

``` r
dennys %>%
  count(state) %>%
  inner_join(states, by = c("state" = "abbreviation")) %>%
  mutate(dennys_per_sq= 1000*area/n) %>%
  arrange(dennys_per_sq)
```

    ## # A tibble: 51 x 5
    ##    state     n name                     area dennys_per_sq
    ##    <chr> <int> <chr>                   <dbl>         <dbl>
    ##  1 DC        2 District of Columbia     68.3        34170 
    ##  2 RI        5 Rhode Island           1545.        308978 
    ##  3 CA      403 California           163695.        406190.
    ##  4 CT       12 Connecticut            5543.        461951.
    ##  5 FL      140 Florida               65758.        469698.
    ##  6 MD       26 Maryland              12406.        477151.
    ##  7 NJ       10 New Jersey             8723.        872258 
    ##  8 NY       56 New York              54555.        974196.
    ##  9 IN       37 Indiana               36420.        984312.
    ## 10 OH       44 Ohio                  44826.       1018763.
    ## # ... with 41 more rows

The state with the most Denny’s per 1000 square miles is Rhode Island,
as the District of Columbia is not a state.

``` r
laquinta %>%
  count(state) %>%
  inner_join(states, by = c("state" = "abbreviation")) %>%
  mutate(laquinta_per_sq= 1000*area/n) %>%
  arrange(laquinta_per_sq)
```

    ## # A tibble: 48 x 5
    ##    state     n name             area laquinta_per_sq
    ##    <chr> <int> <chr>           <dbl>           <dbl>
    ##  1 RI        2 Rhode Island    1545.         772445 
    ##  2 FL       74 Florida        65758.         888618.
    ##  3 CT        6 Connecticut     5543.         923902.
    ##  4 MD       13 Maryland       12406.         954302.
    ##  5 TX      237 Texas         268596.        1133318.
    ##  6 TN       30 Tennessee      42144.        1404808.
    ##  7 GA       41 Georgia        59425.        1449394.
    ##  8 NJ        5 New Jersey      8723.        1744516 
    ##  9 MA        6 Massachusetts  10554.        1759065 
    ## 10 LA       28 Louisiana      52378.        1870648.
    ## # ... with 38 more rows
…
